chords
…
Top 5 acordes mais frequentes por gênero

Warning in left_join(aux, top_songs, by = "song"): Detected an unexpected many-to-many relationship between `x` and `y`.
ℹ Row 56 of `x` matches multiple rows in `y`.
ℹ Row 1359 of `y` matches multiple rows in `x`.
ℹ If a many-to-many relationship is expected, set `relationship =
  "many-to-many"` to silence this warning.

# A tibble: 76 × 4
# Groups:   genre [15]
   genre  chord     n prop  
   <chr>  <chr> <int> <chr> 
 1 altern G        44 5.86% 
 2 altern A        37 4.93% 
 3 altern C        36 4.79% 
 4 altern E        33 4.39% 
 5 altern D        31 4.13% 
 6 axe    D        49 4.313%
 7 axe    G        47 4.137%
 8 axe    A        42 3.697%
 9 axe    C        36 3.169%
10 axe    Em       32 2.817%
# ℹ 66 more rows

Top 2 transições mais frequentes por gênero

Warning in left_join(aux, top_songs, by = "song"): Detected an unexpected many-to-many relationship between `x` and `y`.
ℹ Row 623 of `x` matches multiple rows in `y`.
ℹ Row 1359 of `y` matches multiple rows in `x`.
ℹ If a many-to-many relationship is expected, set `relationship =
  "many-to-many"` to silence this warning.

# A tibble: 33 × 5
# Groups:   genre [15]
   genre      chords_ngram key       n prop 
   <chr>      <chr>        <chr> <int> <chr>
 1 altern     Am G         C        81 0%   
 2 altern     B F#         B        77 0%   
 3 axe        E A          A       105 2%   
 4 axe        A B          E        94 2%   
 5 blues      Am G         B        76 2%   
 6 blues      D5 C5        A        76 2%   
 7 blues      F E          B        76 2%   
 8 blues      G F          B        76 2%   
 9 bossa-nova Em7 A7       D       162 2%   
10 bossa-nova A7 D6/F#     D       133 2%   
# ℹ 23 more rows

Top 2 progressões mais frequentes por gênero

Warning in left_join(aux, top_songs, by = "song"): Detected an unexpected many-to-many relationship between `x` and `y`.
ℹ Row 623 of `x` matches multiple rows in `y`.
ℹ Row 1359 of `y` matches multiple rows in `x`.
ℹ If a many-to-many relationship is expected, set `relationship =
  "many-to-many"` to silence this warning.

# A tibble: 37 × 4
# Groups:   genre [15]
   genre  chords_ngram        n prop 
   <chr>  <chr>           <int> <chr>
 1 altern D G D G            57 0%   
 2 altern F Cm Gm F          49 0%   
 3 altern Gm F Cm Gm         49 0%   
 4 axe    A B E A            36 0%   
 5 axe    Dm7 C7M Dm7 C7M    35 0%   
 6 blues  Am G F E           76 2%   
 7 blues  A5 D5 C5 A5        74 2%   
 8 blues  E Am G F           74 2%   
 9 blues  F E Am G           74 2%   
10 blues  G F E Am           74 2%   
# ℹ 27 more rows

Top 2 tonalidades mais frequentes por gênero

Warning in left_join(aux, top_songs, by = "song"): Detected an unexpected many-to-many relationship between `x` and `y`.
ℹ Row 8 of `x` matches multiple rows in `y`.
ℹ Row 292 of `y` matches multiple rows in `x`.
ℹ If a many-to-many relationship is expected, set `relationship =
  "many-to-many"` to silence this warning.

# A tibble: 31 × 4
# Groups:   genre [15]
   genre      key       n prop 
   <chr>      <chr> <int> <chr>
 1 altern     A        14 14%  
 2 altern     C        14 14%  
 3 axe        A        23 20%  
 4 axe        D        17 14%  
 5 blues      G        22 22%  
 6 blues      A        19 20%  
 7 bossa-nova G        26 18%  
 8 bossa-nova D        23 16%  
 9 forro      G        19 18%  
10 forro      C        18 16%  
# ℹ 21 more rows
…
Análise exploratória após padronização de tom

Top 5 acordes mais frequentes por gênero

Warning in left_join(aux, top_songs, by = "song"): Detected an unexpected many-to-many relationship between `x` and `y`.
ℹ Row 56 of `x` matches multiple rows in `y`.
ℹ Row 1359 of `y` matches multiple rows in `x`.
ℹ If a many-to-many relationship is expected, set `relationship =
  "many-to-many"` to silence this warning.

# A tibble: 75 × 4
# Groups:   genre [15]
   genre  chordC     n prop  
   <chr>  <chr>  <int> <chr> 
 1 altern Am        60 7.99% 
 2 altern C         68 9.05% 
 3 altern Dm        33 4.39% 
 4 altern F         64 8.52% 
 5 altern G         63 8.39% 
 6 axe    Am        61 5.586%
 7 axe    C         74 6.777%
 8 axe    Dm        52 4.762%
 9 axe    F         74 6.777%
10 axe    G         75 6.868%
# ℹ 65 more rows

Top 2 transições mais frequentes por gênero

Warning in left_join(aux, top_songs, by = "song"): Detected an unexpected many-to-many relationship between `x` and `y`.
ℹ Row 623 of `x` matches multiple rows in `y`.
ℹ Row 1359 of `y` matches multiple rows in `x`.
ℹ If a many-to-many relationship is expected, set `relationship =
  "many-to-many"` to silence this warning.

# A tibble: 31 × 4
# Groups:   genre [15]
   genre      chords_ngram     n prop 
   <chr>      <chr>        <int> <chr>
 1 altern     Am G           321 4%   
 2 altern     C G            312 4%   
 3 axe        G C            441 6%   
 4 axe        F G            401 4%   
 5 blues      F C            178 2%   
 6 blues      C F            155 2%   
 7 bossa-nova Dm7 G7         212 2%   
 8 bossa-nova G7 C6/E        133 2%   
 9 forro      C G            631 6%   
10 forro      F C            513 6%   
# ℹ 21 more rows

Top 2 progressões mais frequentes por gênero

Warning in left_join(aux, top_songs, by = "song"): Detected an unexpected many-to-many relationship between `x` and `y`.
ℹ Row 602 of `x` matches multiple rows in `y`.
ℹ Row 1359 of `y` matches multiple rows in `x`.
ℹ If a many-to-many relationship is expected, set `relationship =
  "many-to-many"` to silence this warning.

# A tibble: 35 × 4
# Groups:   genre [15]
   genre      chords_ngram        n prop 
   <chr>      <chr>           <int> <chr>
 1 altern     F C G Am           82 0%   
 2 altern     Am F C G           81 0%   
 3 axe        F G C F            65 0%   
 4 axe        G C F G            62 0%   
 5 blues      A#m G# F# F        76 2%   
 6 blues      C5 F5 D#5 C5       74 2%   
 7 blues      F A#m G# F#        74 2%   
 8 blues      F# F A#m G#        74 2%   
 9 blues      G# F# F A#m        74 2%   
10 bossa-nova Am Am/C B7 A#7M    88 0%   
# ℹ 25 more rows

TF-IDF

Warning in left_join(aux, top_songs, by = "song"): Detected an unexpected many-to-many relationship between `x` and `y`.
ℹ Row 602 of `x` matches multiple rows in `y`.
ℹ Row 1359 of `y` matches multiple rows in `x`.
ℹ If a many-to-many relationship is expected, set `relationship =
  "many-to-many"` to silence this warning.

Adding missing grouping variables: `genre`
Joining with `by = join_by(genre)`

# A tibble: 40,698 × 7
# Groups:   genre [15]
   genre      chords_ngram        n total      tf   idf tf_idf
   <chr>      <chr>           <int> <int>   <dbl> <dbl>  <dbl>
 1 blues      A#m-G#-F#-F        76  6866 0.0111   2.71 0.0300
 2 blues      C5-F5-D#5-C5       74  6866 0.0108   2.71 0.0292
 3 blues      F#-F-A#m-G#        74  6866 0.0108   2.71 0.0292
 4 blues      F-A#m-G#-F#        74  6866 0.0108   2.71 0.0292
 5 blues      G#-F#-F-A#m        74  6866 0.0108   2.71 0.0292
 6 blues      C5-C5-F5-D#5       73  6866 0.0106   2.71 0.0288
 7 blues      D#5-C5-C5-F5       73  6866 0.0106   2.71 0.0288
 8 blues      F5-D#5-C5-C5       73  6866 0.0106   2.71 0.0288
 9 bossa-nova Am-Am/C-B7-A#7M    88 10951 0.00804  2.71 0.0218
10 bossa-nova A#7M-Am-Am/C-B7    76 10951 0.00694  2.71 0.0188
# ℹ 40,688 more rows
…
test$pred <- predict(knn_fit, newdata = test, type = "raw")
test %>% select(genre, pred)

# A tibble: 57 × 2
   genre     pred     
   <fct>     <fct>    
 1 sertanejo sertanejo
 2 gospel    gospel   
 3 sertanejo sertanejo
 4 mpb       sertanejo
 5 gospel    gospel   
 6 rock      sertanejo
 7 gospel    sertanejo
 8 gospel    sertanejo
 9 mpb       sertanejo
10 rock      gospel   
# ℹ 47 more rows
…
